506 Final Project
…
# Summarize rates based on cohabitation, marriage, and fertility intention
rate_summary <- data_final %>%
  group_by(gender, age, highest_education) %>%
  summarize(
    cohabitation_rate = mean(cohabitation_num != "0", na.rm = TRUE), # Calculate cohabitation rate
    marriage_rate = mean(marriage_num != "0", na.rm = TRUE), # Calculate marriage rate
    fertility_intention_rate = mean(fertility_intention == "Yes", na.rm = TRUE), # Calculate fertility intention rate
    count = n(), # Count the number of observations
    .groups = "drop" # Drop grouping after summarization
  )

# View the summarized data
print(rate_summary)

# A tibble: 48 × 7
   gender age   highest_education        cohabitation_rate marriage_rate
   <chr>  <chr> <chr>                                <dbl>         <dbl>
 1 Female 15-19 College/Associate Degree            0.0566       0      
 2 Female 15-19 High School Graduate                0.158        0.0149 
 3 Female 15-19 Less than High School               0.0196       0.00453
 4 Female 20-29 Bachelor's Degree                   0.402        0.229  
 5 Female 20-29 College/Associate Degree            0.492        0.240  
 6 Female 20-29 Doctorate Degree                    0.167        0.167  
 7 Female 20-29 High School Graduate                0.636        0.265  
 8 Female 20-29 Less than High School               0.736        0.25   
 9 Female 20-29 Master's Degree                     0.349        0.317  
10 Female 20-29 Professional Degree                 0.375        0.125  
# ℹ 38 more rows
# ℹ 2 more variables: fertility_intention_rate <dbl>, count <int>
…
